<?xml version="1.0" encoding="utf-8"?>
<!-- Generator: Adobe Illustrator 19.1.0, SVG Export Plug-In . SVG Version: 6.00 Build 0)  -->
<svg version="1.1" id="icons" xmlns="http://www.w3.org/2000/svg" xmlns:xlink="http://www.w3.org/1999/xlink" x="0px" y="0px"
	 viewBox="0 0 65 65" style="enable-background:new 0 0 65 65;" xml:space="preserve">
<style type="text/css">
	.st0{fill:none;stroke:#000000;stroke-linejoin:round;stroke-miterlimit:10;}
	.st1{fill-rule:evenodd;clip-rule:evenodd;fill:none;stroke:#000000;stroke-linejoin:round;stroke-miterlimit:10;}
	.st2{fill:none;stroke:#000000;stroke-linejoin:round;}
</style>
<g>
	<path class="st0" d="M64.5,62.4c0,1.1-0.9,2.1-2.1,2.1H2.6c-1.1,0-2.1-0.9-2.1-2.1V2.6c0-1.1,0.9-2.1,2.1-2.1h59.9
		c1.1,0,2.1,0.9,2.1,2.1V62.4z"/>
	<g>
		<line class="st0" x1="32.5" y1="40" x2="32.5" y2="51"/>
		<line class="st0" x1="39" y1="51.5" x2="26" y2="51.5"/>
		<line class="st0" x1="41" y1="53.5" x2="24" y2="53.5"/>
		<path class="st0" d="M43,15.5h7.1c0,0-0.2,16-8,16"/>
		<path class="st0" d="M22,15.5h-7.1c0,0,0.2,16,8,16"/>
		<path class="st0" d="M22.5,11.5v17.1c0,6.1,4.4,11,10,11c5.6,0,10-4.9,10-11V11.5H22.5z"/>
	</g>
</g>
</svg>
